%YAML 1.1
%TAG !u! tag:unity3d.com,2011:
--- !u!1 &7446082599555985794
GameObject:
  m_ObjectHideFlags: 0
  m_CorrespondingSourceObject: {fileID: 0}
  m_PrefabInstance: {fileID: 0}
  m_PrefabAsset: {fileID: 0}
  serializedVersion: 6
  m_Component:
  - component: {fileID: 7408048973596823935}
  - component: {fileID: 8364902779168438691}
  - component: {fileID: 4482319355049246564}
  m_Layer: 31
  m_Name: Layer1
  m_TagString: Untagged
  m_Icon: {fileID: 0}
  m_NavMeshLayer: 0
  m_StaticEditorFlags: 0
  m_IsActive: 1
--- !u!4 &7408048973596823935
Transform:
  m_ObjectHideFlags: 0
  m_CorrespondingSourceObject: {fileID: 0}
  m_PrefabInstance: {fileID: 0}
  m_PrefabAsset: {fileID: 0}
  m_GameObject: {fileID: 7446082599555985794}
  m_LocalRotation: {x: -0, y: -0, z: -0, w: 1}
  m_LocalPosition: {x: 0, y: 0, z: 0}
  m_LocalScale: {x: 1, y: 1, z: 1}
  m_Children: []
  m_Father: {fileID: 7702628175979147741}
  m_RootOrder: 0
  m_LocalEulerAnglesHint: {x: 0, y: 0, z: 0}
--- !u!1839735485 &8364902779168438691
Tilemap:
  m_ObjectHideFlags: 0
  m_CorrespondingSourceObject: {fileID: 0}
  m_PrefabInstance: {fileID: 0}
  m_PrefabAsset: {fileID: 0}
  m_GameObject: {fileID: 7446082599555985794}
  m_Enabled: 1
  m_Tiles:
  - first: {x: -1, y: -10, z: 0}
    second:
      m_TileIndex: 90
      m_TileSpriteIndex: 90
      m_TileMatrixIndex: 0
      m_TileColorIndex: 0
      m_ObjectToInstantiate: {fileID: 0}
      m_TileFlags: 1
      m_ColliderType: 1
  - first: {x: 0, y: -10, z: 0}
    second:
      m_TileIndex: 91
      m_TileSpriteIndex: 91
      m_TileMatrixIndex: 0
      m_TileColorIndex: 0
      m_ObjectToInstantiate: {fileID: 0}
      m_TileFlags: 1
      m_ColliderType: 1
  - first: {x: 1, y: -10, z: 0}
    second:
      m_TileIndex: 92
      m_TileSpriteIndex: 92
      m_TileMatrixIndex: 0
      m_TileColorIndex: 0
      m_ObjectToInstantiate: {fileID: 0}
      m_TileFlags: 1
      m_ColliderType: 1
  - first: {x: 2, y: -10, z: 0}
    second:
      m_TileIndex: 93
      m_TileSpriteIndex: 93
      m_TileMatrixIndex: 0
      m_TileColorIndex: 0
      m_ObjectToInstantiate: {fileID: 0}
      m_TileFlags: 1
      m_ColliderType: 1
  - first: {x: 3, y: -10, z: 0}
    second:
      m_TileIndex: 94
      m_TileSpriteIndex: 94
      m_TileMatrixIndex: 0
      m_TileColorIndex: 0
      m_ObjectToInstantiate: {fileID: 0}
      m_TileFlags: 1
      m_ColliderType: 1
  - first: {x: -1, y: -9, z: 0}
    second:
      m_TileIndex: 80
      m_TileSpriteIndex: 80
      m_TileMatrixIndex: 0
      m_TileColorIndex: 0
      m_ObjectToInstantiate: {fileID: 0}
      m_TileFlags: 1
      m_ColliderType: 1
  - first: {x: 0, y: -9, z: 0}
    second:
      m_TileIndex: 81
      m_TileSpriteIndex: 81
      m_TileMatrixIndex: 0
      m_TileColorIndex: 0
      m_ObjectToInstantiate: {fileID: 0}
      m_TileFlags: 1
      m_ColliderType: 1
  - first: {x: 1, y: -9, z: 0}
    second:
      m_TileIndex: 82
      m_TileSpriteIndex: 82
      m_TileMatrixIndex: 0
      m_TileColorIndex: 0
      m_ObjectToInstantiate: {fileID: 0}
      m_TileFlags: 1
      m_ColliderType: 1
  - first: {x: 2, y: -9, z: 0}
    second:
      m_TileIndex: 83
      m_TileSpriteIndex: 83
      m_TileMatrixIndex: 0
      m_TileColorIndex: 0
      m_ObjectToInstantiate: {fileID: 0}
      m_TileFlags: 1
      m_ColliderType: 1
  - first: {x: 3, y: -9, z: 0}
    second:
      m_TileIndex: 84
      m_TileSpriteIndex: 84
      m_TileMatrixIndex: 0
      m_TileColorIndex: 0
      m_ObjectToInstantiate: {fileID: 0}
      m_TileFlags: 1
      m_ColliderType: 1
  - first: {x: 4, y: -9, z: 0}
    second:
      m_TileIndex: 85
      m_TileSpriteIndex: 85
      m_TileMatrixIndex: 0
      m_TileColorIndex: 0
      m_ObjectToInstantiate: {fileID: 0}
      m_TileFlags: 1
      m_ColliderType: 1
  - first: {x: 5, y: -9, z: 0}
    second:
      m_TileIndex: 86
      m_TileSpriteIndex: 86
      m_TileMatrixIndex: 0
      m_TileColorIndex: 0
      m_ObjectToInstantiate: {fileID: 0}
      m_TileFlags: 1
      m_ColliderType: 1
  - first: {x: 6, y: -9, z: 0}
    second:
      m_TileIndex: 87
      m_TileSpriteIndex: 87
      m_TileMatrixIndex: 0
      m_TileColorIndex: 0
      m_ObjectToInstantiate: {fileID: 0}
      m_TileFlags: 1
      m_ColliderType: 1
  - first: {x: 7, y: -9, z: 0}
    second:
      m_TileIndex: 88
      m_TileSpriteIndex: 88
      m_TileMatrixIndex: 0
      m_TileColorIndex: 0
      m_ObjectToInstantiate: {fileID: 0}
      m_TileFlags: 1
      m_ColliderType: 1
  - first: {x: 8, y: -9, z: 0}
    second:
      m_TileIndex: 89
      m_TileSpriteIndex: 89
      m_TileMatrixIndex: 0
      m_TileColorIndex: 0
      m_ObjectToInstantiate: {fileID: 0}
      m_TileFlags: 1
      m_ColliderType: 1
  - first: {x: -1, y: -8, z: 0}
    second:
      m_TileIndex: 70
      m_TileSpriteIndex: 70
      m_TileMatrixIndex: 0
      m_TileColorIndex: 0
      m_ObjectToInstantiate: {fileID: 0}
      m_TileFlags: 1
      m_ColliderType: 1
  - first: {x: 0, y: -8, z: 0}
    second:
      m_TileIndex: 71
      m_TileSpriteIndex: 71
      m_TileMatrixIndex: 0
      m_TileColorIndex: 0
      m_ObjectToInstantiate: {fileID: 0}
      m_TileFlags: 1
      m_ColliderType: 1
  - first: {x: 1, y: -8, z: 0}
    second:
      m_TileIndex: 72
      m_TileSpriteIndex: 72
      m_TileMatrixIndex: 0
      m_TileColorIndex: 0
      m_ObjectToInstantiate: {fileID: 0}
      m_TileFlags: 1
      m_ColliderType: 1
  - first: {x: 2, y: -8, z: 0}
    second:
      m_TileIndex: 73
      m_TileSpriteIndex: 73
      m_TileMatrixIndex: 0
      m_TileColorIndex: 0
      m_ObjectToInstantiate: {fileID: 0}
      m_TileFlags: 1
      m_ColliderType: 1
  - first: {x: 3, y: -8, z: 0}
    second:
      m_TileIndex: 74
      m_TileSpriteIndex: 74
      m_TileMatrixIndex: 0
      m_TileColorIndex: 0
      m_ObjectToInstantiate: {fileID: 0}
      m_TileFlags: 1
      m_ColliderType: 1
  - first: {x: 4, y: -8, z: 0}
    second:
      m_TileIndex: 75
      m_TileSpriteIndex: 75
      m_TileMatrixIndex: 0
      m_TileColorIndex: 0
      m_ObjectToInstantiate: {fileID: 0}
      m_TileFlags: 1
      m_ColliderType: 1
  - first: {x: 5, y: -8, z: 0}
    second:
      m_TileIndex: 76
      m_TileSpriteIndex: 76
      m_TileMatrixIndex: 0
      m_TileColorIndex: 0
      m_ObjectToInstantiate: {fileID: 0}
      m_TileFlags: 1
      m_ColliderType: 1
  - first: {x: 6, y: -8, z: 0}
    second:
      m_TileIndex: 77
      m_TileSpriteIndex: 77
      m_TileMatrixIndex: 0
      m_TileColorIndex: 0
      m_ObjectToInstantiate: {fileID: 0}
      m_TileFlags: 1
      m_ColliderType: 1
  - first: {x: 7, y: -8, z: 0}
    second:
      m_TileIndex: 78
      m_TileSpriteIndex: 78
      m_TileMatrixIndex: 0
      m_TileColorIndex: 0
      m_ObjectToInstantiate: {fileID: 0}
      m_TileFlags: 1
      m_ColliderType: 1
  - first: {x: 8, y: -8, z: 0}
    second:
      m_TileIndex: 79
      m_TileSpriteIndex: 79
      m_TileMatrixIndex: 0
      m_TileColorIndex: 0
      m_ObjectToInstantiate: {fileID: 0}
      m_TileFlags: 1
      m_ColliderType: 1
  - first: {x: -1, y: -7, z: 0}
    second:
      m_TileIndex: 60
      m_TileSpriteIndex: 60
      m_TileMatrixIndex: 0
      m_TileColorIndex: 0
      m_ObjectToInstantiate: {fileID: 0}
      m_TileFlags: 1
      m_ColliderType: 1
  - first: {x: 0, y: -7, z: 0}
    second:
      m_TileIndex: 61
      m_TileSpriteIndex: 61
      m_TileMatrixIndex: 0
      m_TileColorIndex: 0
      m_ObjectToInstantiate: {fileID: 0}
      m_TileFlags: 1
      m_ColliderType: 1
  - first: {x: 1, y: -7, z: 0}
    second:
      m_TileIndex: 62
      m_TileSpriteIndex: 62
      m_TileMatrixIndex: 0
      m_TileColorIndex: 0
      m_ObjectToInstantiate: {fileID: 0}
      m_TileFlags: 1
      m_ColliderType: 1
  - first: {x: 2, y: -7, z: 0}
    second:
      m_TileIndex: 63
      m_TileSpriteIndex: 63
      m_TileMatrixIndex: 0
      m_TileColorIndex: 0
      m_ObjectToInstantiate: {fileID: 0}
      m_TileFlags: 1
      m_ColliderType: 1
  - first: {x: 3, y: -7, z: 0}
    second:
      m_TileIndex: 64
      m_TileSpriteIndex: 64
      m_TileMatrixIndex: 0
      m_TileColorIndex: 0
      m_ObjectToInstantiate: {fileID: 0}
      m_TileFlags: 1
      m_ColliderType: 1
  - first: {x: 4, y: -7, z: 0}
    second:
      m_TileIndex: 65
      m_TileSpriteIndex: 65
      m_TileMatrixIndex: 0
      m_TileColorIndex: 0
      m_ObjectToInstantiate: {fileID: 0}
      m_TileFlags: 1
      m_ColliderType: 1
  - first: {x: 5, y: -7, z: 0}
    second:
      m_TileIndex: 66
      m_TileSpriteIndex: 66
      m_TileMatrixIndex: 0
      m_TileColorIndex: 0
      m_ObjectToInstantiate: {fileID: 0}
      m_TileFlags: 1
      m_ColliderType: 1
  - first: {x: 6, y: -7, z: 0}
    second:
      m_TileIndex: 67
      m_TileSpriteIndex: 67
      m_TileMatrixIndex: 0
      m_TileColorIndex: 0
      m_ObjectToInstantiate: {fileID: 0}
      m_TileFlags: 1
      m_ColliderType: 1
  - first: {x: 7, y: -7, z: 0}
    second:
      m_TileIndex: 68
      m_TileSpriteIndex: 68
      m_TileMatrixIndex: 0
      m_TileColorIndex: 0
      m_ObjectToInstantiate: {fileID: 0}
      m_TileFlags: 1
      m_ColliderType: 1
  - first: {x: 8, y: -7, z: 0}
    second:
      m_TileIndex: 69
      m_TileSpriteIndex: 69
      m_TileMatrixIndex: 0
      m_TileColorIndex: 0
      m_ObjectToInstantiate: {fileID: 0}
      m_TileFlags: 1
      m_ColliderType: 1
  - first: {x: -1, y: -6, z: 0}
    second:
      m_TileIndex: 50
      m_TileSpriteIndex: 50
      m_TileMatrixIndex: 0
      m_TileColorIndex: 0
      m_ObjectToInstantiate: {fileID: 0}
      m_TileFlags: 1
      m_ColliderType: 1
  - first: {x: 0, y: -6, z: 0}
    second:
      m_TileIndex: 51
      m_TileSpriteIndex: 51
      m_TileMatrixIndex: 0
      m_TileColorIndex: 0
      m_ObjectToInstantiate: {fileID: 0}
      m_TileFlags: 1
      m_ColliderType: 1
  - first: {x: 1, y: -6, z: 0}
    second:
      m_TileIndex: 52
      m_TileSpriteIndex: 52
      m_TileMatrixIndex: 0
      m_TileColorIndex: 0
      m_ObjectToInstantiate: {fileID: 0}
      m_TileFlags: 1
      m_ColliderType: 1
  - first: {x: 2, y: -6, z: 0}
    second:
      m_TileIndex: 53
      m_TileSpriteIndex: 53
      m_TileMatrixIndex: 0
      m_TileColorIndex: 0
      m_ObjectToInstantiate: {fileID: 0}
      m_TileFlags: 1
      m_ColliderType: 1
  - first: {x: 3, y: -6, z: 0}
    second:
      m_TileIndex: 54
      m_TileSpriteIndex: 54
      m_TileMatrixIndex: 0
      m_TileColorIndex: 0
      m_ObjectToInstantiate: {fileID: 0}
      m_TileFlags: 1
      m_ColliderType: 1
  - first: {x: 4, y: -6, z: 0}
    second:
      m_TileIndex: 55
      m_TileSpriteIndex: 55
      m_TileMatrixIndex: 0
      m_TileColorIndex: 0
      m_ObjectToInstantiate: {fileID: 0}
      m_TileFlags: 1
      m_ColliderType: 1
  - first: {x: 5, y: -6, z: 0}
    second:
      m_TileIndex: 56
      m_TileSpriteIndex: 56
      m_TileMatrixIndex: 0
      m_TileColorIndex: 0
      m_ObjectToInstantiate: {fileID: 0}
      m_TileFlags: 1
      m_ColliderType: 1
  - first: {x: 6, y: -6, z: 0}
    second:
      m_TileIndex: 57
      m_TileSpriteIndex: 57
      m_TileMatrixIndex: 0
      m_TileColorIndex: 0
      m_ObjectToInstantiate: {fileID: 0}
      m_TileFlags: 1
      m_ColliderType: 1
  - first: {x: 7, y: -6, z: 0}
    second:
      m_TileIndex: 58
      m_TileSpriteIndex: 58
      m_TileMatrixIndex: 0
      m_TileColorIndex: 0
      m_ObjectToInstantiate: {fileID: 0}
      m_TileFlags: 1
      m_ColliderType: 1
  - first: {x: 8, y: -6, z: 0}
    second:
      m_TileIndex: 59
      m_TileSpriteIndex: 59
      m_TileMatrixIndex: 0
      m_TileColorIndex: 0
      m_ObjectToInstantiate: {fileID: 0}
      m_TileFlags: 1
      m_ColliderType: 1
  - first: {x: -1, y: -5, z: 0}
    second:
      m_TileIndex: 40
      m_TileSpriteIndex: 40
      m_TileMatrixIndex: 0
      m_TileColorIndex: 0
      m_ObjectToInstantiate: {fileID: 0}
      m_TileFlags: 1
      m_ColliderType: 1
  - first: {x: 0, y: -5, z: 0}
    second:
      m_TileIndex: 41
      m_TileSpriteIndex: 41
      m_TileMatrixIndex: 0
      m_TileColorIndex: 0
      m_ObjectToInstantiate: {fileID: 0}
      m_TileFlags: 1
      m_ColliderType: 1
  - first: {x: 1, y: -5, z: 0}
    second:
      m_TileIndex: 42
      m_TileSpriteIndex: 42
      m_TileMatrixIndex: 0
      m_TileColorIndex: 0
      m_ObjectToInstantiate: {fileID: 0}
      m_TileFlags: 1
      m_ColliderType: 1
  - first: {x: 2, y: -5, z: 0}
    second:
      m_TileIndex: 43
      m_TileSpriteIndex: 43
      m_TileMatrixIndex: 0
      m_TileColorIndex: 0
      m_ObjectToInstantiate: {fileID: 0}
      m_TileFlags: 1
      m_ColliderType: 1
  - first: {x: 3, y: -5, z: 0}
    second:
      m_TileIndex: 44
      m_TileSpriteIndex: 44
      m_TileMatrixIndex: 0
      m_TileColorIndex: 0
      m_ObjectToInstantiate: {fileID: 0}
      m_TileFlags: 1
      m_ColliderType: 1
  - first: {x: 4, y: -5, z: 0}
    second:
      m_TileIndex: 45
      m_TileSpriteIndex: 45
      m_TileMatrixIndex: 0
      m_TileColorIndex: 0
      m_ObjectToInstantiate: {fileID: 0}
      m_TileFlags: 1
      m_ColliderType: 1
  - first: {x: 5, y: -5, z: 0}
    second:
      m_TileIndex: 46
      m_TileSpriteIndex: 46
      m_TileMatrixIndex: 0
      m_TileColorIndex: 0
      m_ObjectToInstantiate: {fileID: 0}
      m_TileFlags: 1
      m_ColliderType: 1
  - first: {x: 6, y: -5, z: 0}
    second:
      m_TileIndex: 47
      m_TileSpriteIndex: 47
      m_TileMatrixIndex: 0
      m_TileColorIndex: 0
      m_ObjectToInstantiate: {fileID: 0}
      m_TileFlags: 1
      m_ColliderType: 1
  - first: {x: 7, y: -5, z: 0}
    second:
      m_TileIndex: 48
      m_TileSpriteIndex: 48
      m_TileMatrixIndex: 0
      m_TileColorIndex: 0
      m_ObjectToInstantiate: {fileID: 0}
      m_TileFlags: 1
      m_ColliderType: 1
  - first: {x: 8, y: -5, z: 0}
    second:
      m_TileIndex: 49
      m_TileSpriteIndex: 49
      m_TileMatrixIndex: 0
      m_TileColorIndex: 0
      m_ObjectToInstantiate: {fileID: 0}
      m_TileFlags: 1
      m_ColliderType: 1
  - first: {x: -1, y: -4, z: 0}
    second:
      m_TileIndex: 30
      m_TileSpriteIndex: 30
      m_TileMatrixIndex: 0
      m_TileColorIndex: 0
      m_ObjectToInstantiate: {fileID: 0}
      m_TileFlags: 1
      m_ColliderType: 1
  - first: {x: 0, y: -4, z: 0}
    second:
      m_TileIndex: 31
      m_TileSpriteIndex: 31
      m_TileMatrixIndex: 0
      m_TileColorIndex: 0
      m_ObjectToInstantiate: {fileID: 0}
      m_TileFlags: 1
      m_ColliderType: 1
  - first: {x: 1, y: -4, z: 0}
    second:
      m_TileIndex: 32
      m_TileSpriteIndex: 32
      m_TileMatrixIndex: 0
      m_TileColorIndex: 0
      m_ObjectToInstantiate: {fileID: 0}
      m_TileFlags: 1
      m_ColliderType: 1
  - first: {x: 2, y: -4, z: 0}
    second:
      m_TileIndex: 33
      m_TileSpriteIndex: 33
      m_TileMatrixIndex: 0
      m_TileColorIndex: 0
      m_ObjectToInstantiate: {fileID: 0}
      m_TileFlags: 1
      m_ColliderType: 1
  - first: {x: 3, y: -4, z: 0}
    second:
      m_TileIndex: 34
      m_TileSpriteIndex: 34
      m_TileMatrixIndex: 0
      m_TileColorIndex: 0
      m_ObjectToInstantiate: {fileID: 0}
      m_TileFlags: 1
      m_ColliderType: 1
  - first: {x: 4, y: -4, z: 0}
    second:
      m_TileIndex: 35
      m_TileSpriteIndex: 35
      m_TileMatrixIndex: 0
      m_TileColorIndex: 0
      m_ObjectToInstantiate: {fileID: 0}
      m_TileFlags: 1
      m_ColliderType: 1
  - first: {x: 5, y: -4, z: 0}
    second:
      m_TileIndex: 36
      m_TileSpriteIndex: 36
      m_TileMatrixIndex: 0
      m_TileColorIndex: 0
      m_ObjectToInstantiate: {fileID: 0}
      m_TileFlags: 1
      m_ColliderType: 1
  - first: {x: 6, y: -4, z: 0}
    second:
      m_TileIndex: 37
      m_TileSpriteIndex: 37
      m_TileMatrixIndex: 0
      m_TileColorIndex: 0
      m_ObjectToInstantiate: {fileID: 0}
      m_TileFlags: 1
      m_ColliderType: 1
  - first: {x: 7, y: -4, z: 0}
    second:
      m_TileIndex: 38
      m_TileSpriteIndex: 38
      m_TileMatrixIndex: 0
      m_TileColorIndex: 0
      m_ObjectToInstantiate: {fileID: 0}
      m_TileFlags: 1
      m_ColliderType: 1
  - first: {x: 8, y: -4, z: 0}
    second:
      m_TileIndex: 39
      m_TileSpriteIndex: 39
      m_TileMatrixIndex: 0
      m_TileColorIndex: 0
      m_ObjectToInstantiate: {fileID: 0}
      m_TileFlags: 1
      m_ColliderType: 1
  - first: {x: -1, y: -3, z: 0}
    second:
      m_TileIndex: 20
      m_TileSpriteIndex: 20
      m_TileMatrixIndex: 0
      m_TileColorIndex: 0
      m_ObjectToInstantiate: {fileID: 0}
      m_TileFlags: 1
      m_ColliderType: 1
  - first: {x: 0, y: -3, z: 0}
    second:
      m_TileIndex: 21
      m_TileSpriteIndex: 21
      m_TileMatrixIndex: 0
      m_TileColorIndex: 0
      m_ObjectToInstantiate: {fileID: 0}
      m_TileFlags: 1
      m_ColliderType: 1
  - first: {x: 1, y: -3, z: 0}
    second:
      m_TileIndex: 22
      m_TileSpriteIndex: 22
      m_TileMatrixIndex: 0
      m_TileColorIndex: 0
      m_ObjectToInstantiate: {fileID: 0}
      m_TileFlags: 1
      m_ColliderType: 1
  - first: {x: 2, y: -3, z: 0}
    second:
      m_TileIndex: 23
      m_TileSpriteIndex: 23
      m_TileMatrixIndex: 0
      m_TileColorIndex: 0
      m_ObjectToInstantiate: {fileID: 0}
      m_TileFlags: 1
      m_ColliderType: 1
  - first: {x: 3, y: -3, z: 0}
    second:
      m_TileIndex: 24
      m_TileSpriteIndex: 24
      m_TileMatrixIndex: 0
      m_TileColorIndex: 0
      m_ObjectToInstantiate: {fileID: 0}
      m_TileFlags: 1
      m_ColliderType: 1
  - first: {x: 4, y: -3, z: 0}
    second:
      m_TileIndex: 25
      m_TileSpriteIndex: 25
      m_TileMatrixIndex: 0
      m_TileColorIndex: 0
      m_ObjectToInstantiate: {fileID: 0}
      m_TileFlags: 1
      m_ColliderType: 1
  - first: {x: 5, y: -3, z: 0}
    second:
      m_TileIndex: 26
      m_TileSpriteIndex: 26
      m_TileMatrixIndex: 0
      m_TileColorIndex: 0
      m_ObjectToInstantiate: {fileID: 0}
      m_TileFlags: 1
      m_ColliderType: 1
  - first: {x: 6, y: -3, z: 0}
    second:
      m_TileIndex: 27
      m_TileSpriteIndex: 27
      m_TileMatrixIndex: 0
      m_TileColorIndex: 0
      m_ObjectToInstantiate: {fileID: 0}
      m_TileFlags: 1
      m_ColliderType: 1
  - first: {x: 7, y: -3, z: 0}
    second:
      m_TileIndex: 28
      m_TileSpriteIndex: 28
      m_TileMatrixIndex: 0
      m_TileColorIndex: 0
      m_ObjectToInstantiate: {fileID: 0}
      m_TileFlags: 1
      m_ColliderType: 1
  - first: {x: 8, y: -3, z: 0}
    second:
      m_TileIndex: 29
      m_TileSpriteIndex: 29
      m_TileMatrixIndex: 0
      m_TileColorIndex: 0
      m_ObjectToInstantiate: {fileID: 0}
      m_TileFlags: 1
      m_ColliderType: 1
  - first: {x: -1, y: -2, z: 0}
    second:
      m_TileIndex: 10
      m_TileSpriteIndex: 10
      m_TileMatrixIndex: 0
      m_TileColorIndex: 0
      m_ObjectToInstantiate: {fileID: 0}
      m_TileFlags: 1
      m_ColliderType: 1
  - first: {x: 0, y: -2, z: 0}
    second:
      m_TileIndex: 11
      m_TileSpriteIndex: 11
      m_TileMatrixIndex: 0
      m_TileColorIndex: 0
      m_ObjectToInstantiate: {fileID: 0}
      m_TileFlags: 1
      m_ColliderType: 1
  - first: {x: 1, y: -2, z: 0}
    second:
      m_TileIndex: 12
      m_TileSpriteIndex: 12
      m_TileMatrixIndex: 0
      m_TileColorIndex: 0
      m_ObjectToInstantiate: {fileID: 0}
      m_TileFlags: 1
      m_ColliderType: 1
  - first: {x: 2, y: -2, z: 0}
    second:
      m_TileIndex: 13
      m_TileSpriteIndex: 13
      m_TileMatrixIndex: 0
      m_TileColorIndex: 0
      m_ObjectToInstantiate: {fileID: 0}
      m_TileFlags: 1
      m_ColliderType: 1
  - first: {x: 3, y: -2, z: 0}
    second:
      m_TileIndex: 14
      m_TileSpriteIndex: 14
      m_TileMatrixIndex: 0
      m_TileColorIndex: 0
      m_ObjectToInstantiate: {fileID: 0}
      m_TileFlags: 1
      m_ColliderType: 1
  - first: {x: 4, y: -2, z: 0}
    second:
      m_TileIndex: 15
      m_TileSpriteIndex: 15
      m_TileMatrixIndex: 0
      m_TileColorIndex: 0
      m_ObjectToInstantiate: {fileID: 0}
      m_TileFlags: 1
      m_ColliderType: 1
  - first: {x: 5, y: -2, z: 0}
    second:
      m_TileIndex: 16
      m_TileSpriteIndex: 16
      m_TileMatrixIndex: 0
      m_TileColorIndex: 0
      m_ObjectToInstantiate: {fileID: 0}
      m_TileFlags: 1
      m_ColliderType: 1
  - first: {x: 6, y: -2, z: 0}
    second:
      m_TileIndex: 17
      m_TileSpriteIndex: 17
      m_TileMatrixIndex: 0
      m_TileColorIndex: 0
      m_ObjectToInstantiate: {fileID: 0}
      m_TileFlags: 1
      m_ColliderType: 1
  - first: {x: 7, y: -2, z: 0}
    second:
      m_TileIndex: 18
      m_TileSpriteIndex: 18
      m_TileMatrixIndex: 0
      m_TileColorIndex: 0
      m_ObjectToInstantiate: {fileID: 0}
      m_TileFlags: 1
      m_ColliderType: 1
  - first: {x: 8, y: -2, z: 0}
    second:
      m_TileIndex: 19
      m_TileSpriteIndex: 19
      m_TileMatrixIndex: 0
      m_TileColorIndex: 0
      m_ObjectToInstantiate: {fileID: 0}
      m_TileFlags: 1
      m_ColliderType: 1
  - first: {x: -1, y: -1, z: 0}
    second:
      m_TileIndex: 0
      m_TileSpriteIndex: 0
      m_TileMatrixIndex: 0
      m_TileColorIndex: 0
      m_ObjectToInstantiate: {fileID: 0}
      m_TileFlags: 1
      m_ColliderType: 1
  - first: {x: 0, y: -1, z: 0}
    second:
      m_TileIndex: 1
      m_TileSpriteIndex: 1
      m_TileMatrixIndex: 0
      m_TileColorIndex: 0
      m_ObjectToInstantiate: {fileID: 0}
      m_TileFlags: 1
      m_ColliderType: 1
  - first: {x: 1, y: -1, z: 0}
    second:
      m_TileIndex: 2
      m_TileSpriteIndex: 2
      m_TileMatrixIndex: 0
      m_TileColorIndex: 0
      m_ObjectToInstantiate: {fileID: 0}
      m_TileFlags: 1
      m_ColliderType: 1
  - first: {x: 2, y: -1, z: 0}
    second:
      m_TileIndex: 3
      m_TileSpriteIndex: 3
      m_TileMatrixIndex: 0
      m_TileColorIndex: 0
      m_ObjectToInstantiate: {fileID: 0}
      m_TileFlags: 1
      m_ColliderType: 1
  - first: {x: 3, y: -1, z: 0}
    second:
      m_TileIndex: 4
      m_TileSpriteIndex: 4
      m_TileMatrixIndex: 0
      m_TileColorIndex: 0
      m_ObjectToInstantiate: {fileID: 0}
      m_TileFlags: 1
      m_ColliderType: 1
  - first: {x: 4, y: -1, z: 0}
    second:
      m_TileIndex: 5
      m_TileSpriteIndex: 5
      m_TileMatrixIndex: 0
      m_TileColorIndex: 0
      m_ObjectToInstantiate: {fileID: 0}
      m_TileFlags: 1
      m_ColliderType: 1
  - first: {x: 5, y: -1, z: 0}
    second:
      m_TileIndex: 6
      m_TileSpriteIndex: 6
      m_TileMatrixIndex: 0
      m_TileColorIndex: 0
      m_ObjectToInstantiate: {fileID: 0}
      m_TileFlags: 1
      m_ColliderType: 1
  - first: {x: 6, y: -1, z: 0}
    second:
      m_TileIndex: 7
      m_TileSpriteIndex: 7
      m_TileMatrixIndex: 0
      m_TileColorIndex: 0
      m_ObjectToInstantiate: {fileID: 0}
      m_TileFlags: 1
      m_ColliderType: 1
  - first: {x: 7, y: -1, z: 0}
    second:
      m_TileIndex: 8
      m_TileSpriteIndex: 8
      m_TileMatrixIndex: 0
      m_TileColorIndex: 0
      m_ObjectToInstantiate: {fileID: 0}
      m_TileFlags: 1
      m_ColliderType: 1
  - first: {x: 8, y: -1, z: 0}
    second:
      m_TileIndex: 9
      m_TileSpriteIndex: 9
      m_TileMatrixIndex: 0
      m_TileColorIndex: 0
      m_ObjectToInstantiate: {fileID: 0}
      m_TileFlags: 1
      m_ColliderType: 1
  m_AnimatedTiles: {}
  m_TileAssetArray:
  - m_RefCount: 1
    m_Data: {fileID: 11400000, guid: 748502670909ce34281828e448bd751c, type: 2}
  - m_RefCount: 1
    m_Data: {fileID: 11400000, guid: 651cc8a26b1658043ac5cfdbe34dc835, type: 2}
  - m_RefCount: 1
    m_Data: {fileID: 11400000, guid: be9e060478b04424e996abde64d0020a, type: 2}
  - m_RefCount: 1
    m_Data: {fileID: 11400000, guid: fbd857ec4101ff943bc526fff4d03114, type: 2}
  - m_RefCount: 1
    m_Data: {fileID: 11400000, guid: 764d062363ee00348a6ed468080f4097, type: 2}
  - m_RefCount: 1
    m_Data: {fileID: 11400000, guid: 87aeaecc800eaa94fa7be0e19545a8c3, type: 2}
  - m_RefCount: 1
    m_Data: {fileID: 11400000, guid: 4e49213705c402d448e05b023543ecca, type: 2}
  - m_RefCount: 1
    m_Data: {fileID: 11400000, guid: 73e05ea39eec9ad4a940bddc20ba59e4, type: 2}
  - m_RefCount: 1
    m_Data: {fileID: 11400000, guid: d9d0d6e0ddc6eda4ba754b76840f2432, type: 2}
  - m_RefCount: 1
    m_Data: {fileID: 11400000, guid: 5883e9e2d806a8843b8e57c2a2bd8a2f, type: 2}
  - m_RefCount: 1
    m_Data: {fileID: 11400000, guid: dc5fc3ce7137d894cb1d1828353c53b8, type: 2}
  - m_RefCount: 1
    m_Data: {fileID: 11400000, guid: 9482b41e4c512fa4091d8f306ca1fd1d, type: 2}
  - m_RefCount: 1
    m_Data: {fileID: 11400000, guid: e0ebd75c8b3763c4f9abaa59229ba96b, type: 2}
  - m_RefCount: 1
    m_Data: {fileID: 11400000, guid: 09da3d76afa01334daad14e40d785f3d, type: 2}
  - m_RefCount: 1
    m_Data: {fileID: 11400000, guid: 38977f16f7acafb4fb8bc13a2ae7ffb2, type: 2}
  - m_RefCount: 1
    m_Data: {fileID: 11400000, guid: 95b459886f933e2459db5ff4b043e9b6, type: 2}
  - m_RefCount: 1
    m_Data: {fileID: 11400000, guid: 366eb672e45c4164ba4faccfb023a02c, type: 2}
  - m_RefCount: 1
    m_Data: {fileID: 11400000, guid: c2f5edb3f07627040984e2dd30dc85e5, type: 2}
  - m_RefCount: 1
    m_Data: {fileID: 11400000, guid: ac35954e73bbfbc41bc42d8367d01b75, type: 2}
  - m_RefCount: 1
    m_Data: {fileID: 11400000, guid: 20cf92a83ec4f85458c3266e027b1244, type: 2}
  - m_RefCount: 1
    m_Data: {fileID: 11400000, guid: 7e1e1e43ef4d0764395c5f742f98b4c7, type: 2}
  - m_RefCount: 1
    m_Data: {fileID: 11400000, guid: a3227416db83fcb4ab57c72c50f680a4, type: 2}
  - m_RefCount: 1
    m_Data: {fileID: 11400000, guid: e61761811bca3e54b80c41ee27ac5cba, type: 2}
  - m_RefCount: 1
    m_Data: {fileID: 11400000, guid: 5a2b24fcce64e1b4baef03b0f6a4a2f6, type: 2}
  - m_RefCount: 1
    m_Data: {fileID: 11400000, guid: f5e8640cc45815a42acbb04f96597947, type: 2}
  - m_RefCount: 1
    m_Data: {fileID: 11400000, guid: 4137ecfe56b1b8c4aa60bd4f720e1bfa, type: 2}
  - m_RefCount: 1
    m_Data: {fileID: 11400000, guid: 4ca979d0d2178c048a40997e7954078a, type: 2}
  - m_RefCount: 1
    m_Data: {fileID: 11400000, guid: 9fda14b8e30700d45b32d04899a7f8c1, type: 2}
  - m_RefCount: 1
    m_Data: {fileID: 11400000, guid: 6120520cc472fcf48962259063d57cb2, type: 2}
  - m_RefCount: 1
    m_Data: {fileID: 11400000, guid: 383824b0aa46787469ec5643ad70d773, type: 2}
  - m_RefCount: 1
    m_Data: {fileID: 11400000, guid: 2978b3031ca845f48ac89c5e5b5dd620, type: 2}
  - m_RefCount: 1
    m_Data: {fileID: 11400000, guid: ffabb2810077a014083391d9be771e98, type: 2}
  - m_RefCount: 1
    m_Data: {fileID: 11400000, guid: 4a89c163bd8923a4eb2dedb04cb66b3a, type: 2}
  - m_RefCount: 1
    m_Data: {fileID: 11400000, guid: 90003903beb85f44eb72bb00f34786e6, type: 2}
  - m_RefCount: 1
    m_Data: {fileID: 11400000, guid: 0c912d108b0559f43b9a30cb7343d01f, type: 2}
  - m_RefCount: 1
    m_Data: {fileID: 11400000, guid: fd9537aa3079e27469c82e278fdc3d9a, type: 2}
  - m_RefCount: 1
    m_Data: {fileID: 11400000, guid: ae3e15877a6826b4e8b8a43b32d5d405, type: 2}
  - m_RefCount: 1
    m_Data: {fileID: 11400000, guid: d50e7dd28422217458796a8dc5b07a9a, type: 2}
  - m_RefCount: 1
    m_Data: {fileID: 11400000, guid: 0e52672cc775fa740991d1647ef3cf13, type: 2}
  - m_RefCount: 1
    m_Data: {fileID: 11400000, guid: 65b12d12f5de6414a9148ac3c8c98651, type: 2}
  - m_RefCount: 1
    m_Data: {fileID: 11400000, guid: 040d7f0949e4dc2439a60b3eea2fb503, type: 2}
  - m_RefCount: 1
    m_Data: {fileID: 11400000, guid: ccb0a4c689197974fb85c410deb1e0d3, type: 2}
  - m_RefCount: 1
    m_Data: {fileID: 11400000, guid: 169b9581e2574aa4d8ef9988c03b3df4, type: 2}
  - m_RefCount: 1
    m_Data: {fileID: 11400000, guid: 6dbbe93c7e489604e92c14f072c0bce9, type: 2}
  - m_RefCount: 1
    m_Data: {fileID: 11400000, guid: 5ae8e5e07e4097a4c82c5ec52d19f690, type: 2}
  - m_RefCount: 1
    m_Data: {fileID: 11400000, guid: 59af37c3ffcf7a54fa7cc12afb9b0703, type: 2}
  - m_RefCount: 1
    m_Data: {fileID: 11400000, guid: dc2e2735dc32cb74291500a2ff9cc441, type: 2}
  - m_RefCount: 1
    m_Data: {fileID: 11400000, guid: f3112ac40d1c62e47a2051d9733b46ed, type: 2}
  - m_RefCount: 1
    m_Data: {fileID: 11400000, guid: 1cc03568067a23540a1c055ed4bac110, type: 2}
  - m_RefCount: 1
    m_Data: {fileID: 11400000, guid: 85900cf0a3407bc4895085500813d1e2, type: 2}
  - m_RefCount: 1
    m_Data: {fileID: 11400000, guid: 8dff9d76dc53ea84086d600ac1efd1b1, type: 2}
  - m_RefCount: 1
    m_Data: {fileID: 11400000, guid: 68f87a32015fb744cb855ead10c8f350, type: 2}
  - m_RefCount: 1
    m_Data: {fileID: 11400000, guid: 27adb855aa9f0164498af9f349dbe201, type: 2}
  - m_RefCount: 1
    m_Data: {fileID: 11400000, guid: 5ddb4f2bd7caa104fac42c46f3aca217, type: 2}
  - m_RefCount: 1
    m_Data: {fileID: 11400000, guid: 998ea7a6ca46e3340aea9307eb6e03dd, type: 2}
  - m_RefCount: 1
    m_Data: {fileID: 11400000, guid: 993fcd0c25b70fd4aadd0f8aae34de9b, type: 2}
  - m_RefCount: 1
    m_Data: {fileID: 11400000, guid: 68af71e9e72e986418e9f1be3ed8559e, type: 2}
  - m_RefCount: 1
    m_Data: {fileID: 11400000, guid: 8311b9828ed49ec4ebbc9e64fe0fbc9b, type: 2}
  - m_RefCount: 1
    m_Data: {fileID: 11400000, guid: d4513f5fa12461c4397a0cef03783788, type: 2}
  - m_RefCount: 1
    m_Data: {fileID: 11400000, guid: e637ec5b4b7292e4386dd9bdc9bf611b, type: 2}
  - m_RefCount: 1
    m_Data: {fileID: 11400000, guid: bafdf9fe174917e4babe0555d666093c, type: 2}
  - m_RefCount: 1
    m_Data: {fileID: 11400000, guid: 17ad4853859b2b94b8999b0cf7e2405f, type: 2}
  - m_RefCount: 1
    m_Data: {fileID: 11400000, guid: bb2d0d9cd4448fd48a742963b2fc5416, type: 2}
  - m_RefCount: 1
    m_Data: {fileID: 11400000, guid: 6b1dbacf9908449458e7f0530c89cc2c, type: 2}
  - m_RefCount: 1
    m_Data: {fileID: 11400000, guid: d3c6df12263009c47b1a0eeecd394ea9, type: 2}
  - m_RefCount: 1
    m_Data: {fileID: 11400000, guid: 0dd282a8b5a72da4b86a6b4c514bb6ee, type: 2}
  - m_RefCount: 1
    m_Data: {fileID: 11400000, guid: dd402e3abad61dd4b93967964020f97a, type: 2}
  - m_RefCount: 1
    m_Data: {fileID: 11400000, guid: db467795b6fb6f6449ffeec37b373ce7, type: 2}
  - m_RefCount: 1
    m_Data: {fileID: 11400000, guid: 61507703e0634874f81b363faca3bef3, type: 2}
  - m_RefCount: 1
    m_Data: {fileID: 11400000, guid: ad1687460d1927f499f1942aeb70dea2, type: 2}
  - m_RefCount: 1
    m_Data: {fileID: 11400000, guid: 38461493de0feb942aae25f99e7395fd, type: 2}
  - m_RefCount: 1
    m_Data: {fileID: 11400000, guid: badd1b0603ba41649ab0a8262a2aa8e3, type: 2}
  - m_RefCount: 1
    m_Data: {fileID: 11400000, guid: f99b7ad8dfb99db46a698d4e091d1651, type: 2}
  - m_RefCount: 1
    m_Data: {fileID: 11400000, guid: 738aeda0d97aa344d8d38bf10aca9d66, type: 2}
  - m_RefCount: 1
    m_Data: {fileID: 11400000, guid: 06b694fb64a953c4eabe68c38c8996d5, type: 2}
  - m_RefCount: 1
    m_Data: {fileID: 11400000, guid: 08cd87e3ae0b64d43bb6d2c1e1d07353, type: 2}
  - m_RefCount: 1
    m_Data: {fileID: 11400000, guid: 0471f77b2f8dd26499c397005b37a0ca, type: 2}
  - m_RefCount: 1
    m_Data: {fileID: 11400000, guid: 3428ab22bc98dc048afc0defbdbd868b, type: 2}
  - m_RefCount: 1
    m_Data: {fileID: 11400000, guid: a2d99e8d5fe5b6248a45d83b3baa3773, type: 2}
  - m_RefCount: 1
    m_Data: {fileID: 11400000, guid: fec29af41c079da428a37cebed50ebe1, type: 2}
  - m_RefCount: 1
    m_Data: {fileID: 11400000, guid: 0a3cb4ad08455f3418af3dff9113ca96, type: 2}
  - m_RefCount: 1
    m_Data: {fileID: 11400000, guid: 1d47f79d28629954bb59ef1e13797822, type: 2}
  - m_RefCount: 1
    m_Data: {fileID: 11400000, guid: f9fc057ef5e444c41b5752a7329c8471, type: 2}
  - m_RefCount: 1
    m_Data: {fileID: 11400000, guid: 8c2be16ed0287ac409f1286cf888150f, type: 2}
  - m_RefCount: 1
    m_Data: {fileID: 11400000, guid: 044701ab0e9db264abc40a400bb9be4a, type: 2}
  - m_RefCount: 1
    m_Data: {fileID: 11400000, guid: 65da91a24100a7d4f90c1f5e98eb9a6a, type: 2}
  - m_RefCount: 1
    m_Data: {fileID: 11400000, guid: 94359d4ab5123614ba14bec54db7107c, type: 2}
  - m_RefCount: 1
    m_Data: {fileID: 11400000, guid: 2cdc7862554ea1241817ccfec728f88b, type: 2}
  - m_RefCount: 1
    m_Data: {fileID: 11400000, guid: d1ae7b5681c5a6c45821cbb4f3ec63f1, type: 2}
  - m_RefCount: 1
    m_Data: {fileID: 11400000, guid: 5b3ee055b24ffab409d657dd2d8f64b2, type: 2}
  - m_RefCount: 1
    m_Data: {fileID: 11400000, guid: 03b830456cdff8b4a854b93632266e50, type: 2}
  - m_RefCount: 1
    m_Data: {fileID: 11400000, guid: 6da26b51989717644840d78ef42cb601, type: 2}
  - m_RefCount: 1
    m_Data: {fileID: 11400000, guid: 4740f610956b90140af7726b00b65e5c, type: 2}
  - m_RefCount: 1
    m_Data: {fileID: 11400000, guid: eca26a024d40fb64aacc1539ca2f9810, type: 2}
  - m_RefCount: 1
    m_Data: {fileID: 11400000, guid: 33ce12c4bac025848bf378199e7dda37, type: 2}
  m_TileSpriteArray:
  - m_RefCount: 1
    m_Data: {fileID: 8107003309064228536, guid: f9806f05c1388d346bc109a36d93df90,
      type: 3}
  - m_RefCount: 1
    m_Data: {fileID: 3117632025947246472, guid: f9806f05c1388d346bc109a36d93df90,
      type: 3}
  - m_RefCount: 1
    m_Data: {fileID: -8361395579288356015, guid: f9806f05c1388d346bc109a36d93df90,
      type: 3}
  - m_RefCount: 1
    m_Data: {fileID: 2188054433451213864, guid: f9806f05c1388d346bc109a36d93df90,
      type: 3}
  - m_RefCount: 1
    m_Data: {fileID: 1822336980383454169, guid: f9806f05c1388d346bc109a36d93df90,
      type: 3}
  - m_RefCount: 1
    m_Data: {fileID: 290413304373176387, guid: f9806f05c1388d346bc109a36d93df90, type: 3}
  - m_RefCount: 1
    m_Data: {fileID: 5935668723863271094, guid: f9806f05c1388d346bc109a36d93df90,
      type: 3}
  - m_RefCount: 1
    m_Data: {fileID: 8124048037490446255, guid: f9806f05c1388d346bc109a36d93df90,
      type: 3}
  - m_RefCount: 1
    m_Data: {fileID: 5701323815319956480, guid: f9806f05c1388d346bc109a36d93df90,
      type: 3}
  - m_RefCount: 1
    m_Data: {fileID: 7624190810512902606, guid: f9806f05c1388d346bc109a36d93df90,
      type: 3}
  - m_RefCount: 1
    m_Data: {fileID: -8546991080885487375, guid: f9806f05c1388d346bc109a36d93df90,
      type: 3}
  - m_RefCount: 1
    m_Data: {fileID: -6929621148909706543, guid: f9806f05c1388d346bc109a36d93df90,
      type: 3}
  - m_RefCount: 1
    m_Data: {fileID: 5207274173722493727, guid: f9806f05c1388d346bc109a36d93df90,
      type: 3}
  - m_RefCount: 1
    m_Data: {fileID: -8761330790844820830, guid: f9806f05c1388d346bc109a36d93df90,
      type: 3}
  - m_RefCount: 1
    m_Data: {fileID: 9062670429144820276, guid: f9806f05c1388d346bc109a36d93df90,
      type: 3}
  - m_RefCount: 1
    m_Data: {fileID: 1570873768735238229, guid: f9806f05c1388d346bc109a36d93df90,
      type: 3}
  - m_RefCount: 1
    m_Data: {fileID: -8981951582932282028, guid: f9806f05c1388d346bc109a36d93df90,
      type: 3}
  - m_RefCount: 1
    m_Data: {fileID: 1899208332222632613, guid: f9806f05c1388d346bc109a36d93df90,
      type: 3}
  - m_RefCount: 1
    m_Data: {fileID: -7526446647283397265, guid: f9806f05c1388d346bc109a36d93df90,
      type: 3}
  - m_RefCount: 1
    m_Data: {fileID: -4342748174406131414, guid: f9806f05c1388d346bc109a36d93df90,
      type: 3}
  - m_RefCount: 1
    m_Data: {fileID: 7188352291898271985, guid: f9806f05c1388d346bc109a36d93df90,
      type: 3}
  - m_RefCount: 1
    m_Data: {fileID: -2596551587714384524, guid: f9806f05c1388d346bc109a36d93df90,
      type: 3}
  - m_RefCount: 1
    m_Data: {fileID: 9125033990057165210, guid: f9806f05c1388d346bc109a36d93df90,
      type: 3}
  - m_RefCount: 1
    m_Data: {fileID: 1701940341788501746, guid: f9806f05c1388d346bc109a36d93df90,
      type: 3}
  - m_RefCount: 1
    m_Data: {fileID: 5303263194182432246, guid: f9806f05c1388d346bc109a36d93df90,
      type: 3}
  - m_RefCount: 1
    m_Data: {fileID: -2828292631405311388, guid: f9806f05c1388d346bc109a36d93df90,
      type: 3}
  - m_RefCount: 1
    m_Data: {fileID: -521319510670925024, guid: f9806f05c1388d346bc109a36d93df90,
      type: 3}
  - m_RefCount: 1
    m_Data: {fileID: -3861572444848426987, guid: f9806f05c1388d346bc109a36d93df90,
      type: 3}
  - m_RefCount: 1
    m_Data: {fileID: 7228063925917623806, guid: f9806f05c1388d346bc109a36d93df90,
      type: 3}
  - m_RefCount: 1
    m_Data: {fileID: -1260910474247463490, guid: f9806f05c1388d346bc109a36d93df90,
      type: 3}
  - m_RefCount: 1
    m_Data: {fileID: 4774263201650792018, guid: f9806f05c1388d346bc109a36d93df90,
      type: 3}
  - m_RefCount: 1
    m_Data: {fileID: 2383762411496401996, guid: f9806f05c1388d346bc109a36d93df90,
      type: 3}
  - m_RefCount: 1
    m_Data: {fileID: 7489549244389562144, guid: f9806f05c1388d346bc109a36d93df90,
      type: 3}
  - m_RefCount: 1
    m_Data: {fileID: -8113424627778999153, guid: f9806f05c1388d346bc109a36d93df90,
      type: 3}
  - m_RefCount: 1
    m_Data: {fileID: -565713048702511719, guid: f9806f05c1388d346bc109a36d93df90,
      type: 3}
  - m_RefCount: 1
    m_Data: {fileID: 8723317995185579275, guid: f9806f05c1388d346bc109a36d93df90,
      type: 3}
  - m_RefCount: 1
    m_Data: {fileID: 4400001240477148272, guid: f9806f05c1388d346bc109a36d93df90,
      type: 3}
  - m_RefCount: 1
    m_Data: {fileID: -6956612751247946017, guid: f9806f05c1388d346bc109a36d93df90,
      type: 3}
  - m_RefCount: 1
    m_Data: {fileID: 1923235907473955015, guid: f9806f05c1388d346bc109a36d93df90,
      type: 3}
  - m_RefCount: 1
    m_Data: {fileID: -4900987156341342105, guid: f9806f05c1388d346bc109a36d93df90,
      type: 3}
  - m_RefCount: 1
    m_Data: {fileID: 5309502521250291261, guid: f9806f05c1388d346bc109a36d93df90,
      type: 3}
  - m_RefCount: 1
    m_Data: {fileID: -9001960528596694407, guid: f9806f05c1388d346bc109a36d93df90,
      type: 3}
  - m_RefCount: 1
    m_Data: {fileID: -1122033488691703239, guid: f9806f05c1388d346bc109a36d93df90,
      type: 3}
  - m_RefCount: 1
    m_Data: {fileID: 4299704278598811071, guid: f9806f05c1388d346bc109a36d93df90,
      type: 3}
  - m_RefCount: 1
    m_Data: {fileID: 6550450633894013113, guid: f9806f05c1388d346bc109a36d93df90,
      type: 3}
  - m_RefCount: 1
    m_Data: {fileID: 5059879749142493644, guid: f9806f05c1388d346bc109a36d93df90,
      type: 3}
  - m_RefCount: 1
    m_Data: {fileID: -4105082794261451809, guid: f9806f05c1388d346bc109a36d93df90,
      type: 3}
  - m_RefCount: 1
    m_Data: {fileID: 6134269272502211911, guid: f9806f05c1388d346bc109a36d93df90,
      type: 3}
  - m_RefCount: 1
    m_Data: {fileID: -6501820539926104199, guid: f9806f05c1388d346bc109a36d93df90,
      type: 3}
  - m_RefCount: 1
    m_Data: {fileID: 1146526383176082725, guid: f9806f05c1388d346bc109a36d93df90,
      type: 3}
  - m_RefCount: 1
    m_Data: {fileID: -9013419886349691422, guid: f9806f05c1388d346bc109a36d93df90,
      type: 3}
  - m_RefCount: 1
    m_Data: {fileID: -2120328459972948764, guid: f9806f05c1388d346bc109a36d93df90,
      type: 3}
  - m_RefCount: 1
    m_Data: {fileID: -6254618943755193521, guid: f9806f05c1388d346bc109a36d93df90,
      type: 3}
  - m_RefCount: 1
    m_Data: {fileID: -455082038970770872, guid: f9806f05c1388d346bc109a36d93df90,
      type: 3}
  - m_RefCount: 1
    m_Data: {fileID: -5352343277239048023, guid: f9806f05c1388d346bc109a36d93df90,
      type: 3}
  - m_RefCount: 1
    m_Data: {fileID: -7254007879699591668, guid: f9806f05c1388d346bc109a36d93df90,
      type: 3}
  - m_RefCount: 1
    m_Data: {fileID: 3972412344793452487, guid: f9806f05c1388d346bc109a36d93df90,
      type: 3}
  - m_RefCount: 1
    m_Data: {fileID: -3109394130810394089, guid: f9806f05c1388d346bc109a36d93df90,
      type: 3}
  - m_RefCount: 1
    m_Data: {fileID: -6133813032105274213, guid: f9806f05c1388d346bc109a36d93df90,
      type: 3}
  - m_RefCount: 1
    m_Data: {fileID: 6990816246390001909, guid: f9806f05c1388d346bc109a36d93df90,
      type: 3}
  - m_RefCount: 1
    m_Data: {fileID: 8255429783049712886, guid: f9806f05c1388d346bc109a36d93df90,
      type: 3}
  - m_RefCount: 1
    m_Data: {fileID: -3793684467783995771, guid: f9806f05c1388d346bc109a36d93df90,
      type: 3}
  - m_RefCount: 1
    m_Data: {fileID: -330485117386691822, guid: f9806f05c1388d346bc109a36d93df90,
      type: 3}
  - m_RefCount: 1
    m_Data: {fileID: -9013252986012543590, guid: f9806f05c1388d346bc109a36d93df90,
      type: 3}
  - m_RefCount: 1
    m_Data: {fileID: 3808262183649531308, guid: f9806f05c1388d346bc109a36d93df90,
      type: 3}
  - m_RefCount: 1
    m_Data: {fileID: -4117984182435889750, guid: f9806f05c1388d346bc109a36d93df90,
      type: 3}
  - m_RefCount: 1
    m_Data: {fileID: 8146941169469738546, guid: f9806f05c1388d346bc109a36d93df90,
      type: 3}
  - m_RefCount: 1
    m_Data: {fileID: -7439642573211332433, guid: f9806f05c1388d346bc109a36d93df90,
      type: 3}
  - m_RefCount: 1
    m_Data: {fileID: -5437413000514041973, guid: f9806f05c1388d346bc109a36d93df90,
      type: 3}
  - m_RefCount: 1
    m_Data: {fileID: -8135798464845152383, guid: f9806f05c1388d346bc109a36d93df90,
      type: 3}
  - m_RefCount: 1
    m_Data: {fileID: 837258221831974969, guid: f9806f05c1388d346bc109a36d93df90, type: 3}
  - m_RefCount: 1
    m_Data: {fileID: 3736727801315872699, guid: f9806f05c1388d346bc109a36d93df90,
      type: 3}
  - m_RefCount: 1
    m_Data: {fileID: -1344377913950877045, guid: f9806f05c1388d346bc109a36d93df90,
      type: 3}
  - m_RefCount: 1
    m_Data: {fileID: 7777733538493565244, guid: f9806f05c1388d346bc109a36d93df90,
      type: 3}
  - m_RefCount: 1
    m_Data: {fileID: 1921650661589082601, guid: f9806f05c1388d346bc109a36d93df90,
      type: 3}
  - m_RefCount: 1
    m_Data: {fileID: -5961938106161397938, guid: f9806f05c1388d346bc109a36d93df90,
      type: 3}
  - m_RefCount: 1
    m_Data: {fileID: -7752217102932924959, guid: f9806f05c1388d346bc109a36d93df90,
      type: 3}
  - m_RefCount: 1
    m_Data: {fileID: 7745193875003892806, guid: f9806f05c1388d346bc109a36d93df90,
      type: 3}
  - m_RefCount: 1
    m_Data: {fileID: 7486693702671171684, guid: f9806f05c1388d346bc109a36d93df90,
      type: 3}
  - m_RefCount: 1
    m_Data: {fileID: -3424535999878763908, guid: f9806f05c1388d346bc109a36d93df90,
      type: 3}
  - m_RefCount: 1
    m_Data: {fileID: -8167159783298702671, guid: f9806f05c1388d346bc109a36d93df90,
      type: 3}
  - m_RefCount: 1
    m_Data: {fileID: 5303628543402611790, guid: f9806f05c1388d346bc109a36d93df90,
      type: 3}
  - m_RefCount: 1
    m_Data: {fileID: 8351164018558947343, guid: f9806f05c1388d346bc109a36d93df90,
      type: 3}
  - m_RefCount: 1
    m_Data: {fileID: 6836142020390718307, guid: f9806f05c1388d346bc109a36d93df90,
      type: 3}
  - m_RefCount: 1
    m_Data: {fileID: 5121564086172722017, guid: f9806f05c1388d346bc109a36d93df90,
      type: 3}
  - m_RefCount: 1
    m_Data: {fileID: -1616631393620722252, guid: f9806f05c1388d346bc109a36d93df90,
      type: 3}
  - m_RefCount: 1
    m_Data: {fileID: 8700977106882777255, guid: f9806f05c1388d346bc109a36d93df90,
      type: 3}
  - m_RefCount: 1
    m_Data: {fileID: 3980362446936449029, guid: f9806f05c1388d346bc109a36d93df90,
      type: 3}
  - m_RefCount: 1
    m_Data: {fileID: 6232287972833399961, guid: f9806f05c1388d346bc109a36d93df90,
      type: 3}
  - m_RefCount: 1
    m_Data: {fileID: -1327354005749912016, guid: f9806f05c1388d346bc109a36d93df90,
      type: 3}
  - m_RefCount: 1
    m_Data: {fileID: 2643349537621986739, guid: f9806f05c1388d346bc109a36d93df90,
      type: 3}
  - m_RefCount: 1
    m_Data: {fileID: 5026553297539353025, guid: f9806f05c1388d346bc109a36d93df90,
      type: 3}
  - m_RefCount: 1
    m_Data: {fileID: -6828428675841282763, guid: f9806f05c1388d346bc109a36d93df90,
      type: 3}
  - m_RefCount: 1
    m_Data: {fileID: -5885056816174971157, guid: f9806f05c1388d346bc109a36d93df90,
      type: 3}
  - m_RefCount: 1
    m_Data: {fileID: -3302224558211673287, guid: f9806f05c1388d346bc109a36d93df90,
      type: 3}
  m_TileMatrixArray:
  - m_RefCount: 95
    m_Data:
      e00: 1
      e01: 0
      e02: 0
      e03: 0
      e10: 0
      e11: 1
      e12: 0
      e13: 0
      e20: 0
      e21: 0
      e22: 1
      e23: 0
      e30: 0
      e31: 0
      e32: 0
      e33: 1
  m_TileColorArray:
  - m_RefCount: 95
    m_Data: {r: 1, g: 1, b: 1, a: 1}
  m_AnimationFrameRate: 1
  m_Color: {r: 1, g: 1, b: 1, a: 1}
  m_Origin: {x: -1, y: -10, z: 0}
  m_Size: {x: 10, y: 10, z: 1}
  m_TileAnchor: {x: 0.5, y: 0.5, z: 0}
  m_TileOrientation: 0
  m_TileOrientationMatrix:
    e00: 1
    e01: 0
    e02: 0
    e03: 0
    e10: 0
    e11: 1
    e12: 0
    e13: 0
    e20: 0
    e21: 0
    e22: 1
    e23: 0
    e30: 0
    e31: 0
    e32: 0
    e33: 1
--- !u!483693784 &4482319355049246564
TilemapRenderer:
  m_ObjectHideFlags: 0
  m_CorrespondingSourceObject: {fileID: 0}
  m_PrefabInstance: {fileID: 0}
  m_PrefabAsset: {fileID: 0}
  m_GameObject: {fileID: 7446082599555985794}
  m_Enabled: 0
  m_CastShadows: 0
  m_ReceiveShadows: 0
  m_DynamicOccludee: 0
  m_MotionVectors: 1
  m_LightProbeUsage: 0
  m_ReflectionProbeUsage: 0
  m_RenderingLayerMask: 1
  m_RendererPriority: 0
  m_Materials:
  - {fileID: 10754, guid: 0000000000000000f000000000000000, type: 0}
  m_StaticBatchInfo:
    firstSubMesh: 0
    subMeshCount: 0
  m_StaticBatchRoot: {fileID: 0}
  m_ProbeAnchor: {fileID: 0}
  m_LightProbeVolumeOverride: {fileID: 0}
  m_ScaleInLightmap: 1
  m_ReceiveGI: 1
  m_PreserveUVs: 0
  m_IgnoreNormalsForChartDetection: 0
  m_ImportantGI: 0
  m_StitchLightmapSeams: 1
  m_SelectedEditorRenderState: 0
  m_MinimumChartSize: 4
  m_AutoUVMaxDistance: 0.5
  m_AutoUVMaxAngle: 89
  m_LightmapParameters: {fileID: 0}
  m_SortingLayerID: 0
  m_SortingLayer: 0
  m_SortingOrder: 0
  m_ChunkSize: {x: 32, y: 32, z: 32}
  m_ChunkCullingBounds: {x: 0, y: 0, z: 0}
  m_MaxChunkCount: 16
  m_MaxFrameAge: 16
  m_SortOrder: 0
  m_Mode: 0
  m_DetectChunkCullingBounds: 0
  m_MaskInteraction: 0
--- !u!1 &8706600413224837553
GameObject:
  m_ObjectHideFlags: 0
  m_CorrespondingSourceObject: {fileID: 0}
  m_PrefabInstance: {fileID: 0}
  m_PrefabAsset: {fileID: 0}
  serializedVersion: 6
  m_Component:
  - component: {fileID: 7702628175979147741}
  - component: {fileID: 5971155133720947382}
  m_Layer: 31
  m_Name: New Palette
  m_TagString: Untagged
  m_Icon: {fileID: 0}
  m_NavMeshLayer: 0
  m_StaticEditorFlags: 0
  m_IsActive: 1
--- !u!4 &7702628175979147741
Transform:
  m_ObjectHideFlags: 0
  m_CorrespondingSourceObject: {fileID: 0}
  m_PrefabInstance: {fileID: 0}
  m_PrefabAsset: {fileID: 0}
  m_GameObject: {fileID: 8706600413224837553}
  m_LocalRotation: {x: 0, y: 0, z: 0, w: 1}
  m_LocalPosition: {x: 0, y: 0, z: 0}
  m_LocalScale: {x: 1, y: 1, z: 1}
  m_Children:
  - {fileID: 7408048973596823935}
  m_Father: {fileID: 0}
  m_RootOrder: 0
  m_LocalEulerAnglesHint: {x: 0, y: 0, z: 0}
--- !u!156049354 &5971155133720947382
Grid:
  m_ObjectHideFlags: 0
  m_CorrespondingSourceObject: {fileID: 0}
  m_PrefabInstance: {fileID: 0}
  m_PrefabAsset: {fileID: 0}
  m_GameObject: {fileID: 8706600413224837553}
  m_Enabled: 1
  m_CellSize: {x: 1, y: 1, z: 0}
  m_CellGap: {x: 0, y: 0, z: 0}
  m_CellLayout: 0
  m_CellSwizzle: 0
--- !u!114 &1756657827054222153
MonoBehaviour:
  m_ObjectHideFlags: 0
  m_CorrespondingSourceObject: {fileID: 0}
  m_PrefabInstance: {fileID: 0}
  m_PrefabAsset: {fileID: 0}
  m_GameObject: {fileID: 0}
  m_Enabled: 1
  m_EditorHideFlags: 0
  m_Script: {fileID: 12395, guid: 0000000000000000e000000000000000, type: 0}
  m_Name: Palette Settings
  m_EditorClassIdentifier: 
  cellSizing: 0
